<svg width="199" height="30" viewBox="0 0 199 30" fill="none" xmlns="http://www.w3.org/2000/svg">
<path d="M8.60742 6.78125H10.4922V16.8496C10.4922 18.2103 10.082 19.2747 9.26172 20.043C8.44792 20.8112 7.36068 21.1953 6 21.1953C4.58724 21.1953 3.48698 20.834 2.69922 20.1113C1.91146 19.3887 1.51758 18.3763 1.51758 17.0742H3.39258C3.39258 17.888 3.61393 18.5228 4.05664 18.9785C4.50586 19.4342 5.15365 19.6621 6 19.6621C6.77474 19.6621 7.39974 19.418 7.875 18.9297C8.35677 18.4414 8.60091 17.7578 8.60742 16.8789V6.78125ZM21.3223 17.2891H15.3652L14.0273 21H12.0938L17.5234 6.78125H19.1641L24.6035 21H22.6797L21.3223 17.2891ZM15.9316 15.7461H20.7656L18.3438 9.0957L15.9316 15.7461ZM30.1309 14.3887L28.3926 16.1953V21H26.5176V6.78125H28.3926V13.8125L34.7109 6.78125H36.9766L31.3809 13.0605L37.416 21H35.1699L30.1309 14.3887ZM46.9082 17.2891H40.9512L39.6133 21H37.6797L43.1094 6.78125H44.75L50.1895 21H48.2656L46.9082 17.2891ZM41.5176 15.7461H46.3516L43.9297 9.0957L41.5176 15.7461ZM57.3184 15.248H53.9785V21H52.0938V6.78125H56.8008C58.4023 6.78125 59.6328 7.14583 60.4922 7.875C61.3581 8.60417 61.791 9.66536 61.791 11.0586C61.791 11.944 61.5501 12.7155 61.0684 13.373C60.5931 14.0306 59.929 14.5221 59.0762 14.8477L62.416 20.8828V21H60.4043L57.3184 15.248ZM53.9785 13.7148H56.8594C57.7904 13.7148 58.5293 13.474 59.0762 12.9922C59.6296 12.5104 59.9062 11.8659 59.9062 11.0586C59.9062 10.1797 59.6426 9.50586 59.1152 9.03711C58.5944 8.56836 57.8392 8.33073 56.8496 8.32422H53.9785V13.7148ZM73.4707 8.32422H68.9004V21H67.0352V8.32422H62.4746V6.78125H73.4707V8.32422ZM82.6504 17.2891H76.6934L75.3555 21H73.4219L78.8516 6.78125H80.4922L85.9316 21H84.0078L82.6504 17.2891ZM77.2598 15.7461H82.0938L79.6719 9.0957L77.2598 15.7461ZM96.9961 14.6621C95.388 14.1999 94.2161 13.6335 93.4805 12.9629C92.7513 12.2858 92.3867 11.4525 92.3867 10.4629C92.3867 9.3431 92.8327 8.41862 93.7246 7.68945C94.623 6.95378 95.7884 6.58594 97.2207 6.58594C98.1973 6.58594 99.0664 6.77474 99.8281 7.15234C100.596 7.52995 101.189 8.05078 101.605 8.71484C102.029 9.37891 102.24 10.1048 102.24 10.8926H100.355C100.355 10.0332 100.082 9.35938 99.5352 8.87109C98.9883 8.3763 98.2168 8.12891 97.2207 8.12891C96.2962 8.12891 95.5736 8.33398 95.0527 8.74414C94.5384 9.14779 94.2812 9.71094 94.2812 10.4336C94.2812 11.013 94.5254 11.5046 95.0137 11.9082C95.5085 12.3053 96.3451 12.6699 97.5234 13.002C98.7083 13.334 99.6328 13.7018 100.297 14.1055C100.967 14.5026 101.462 14.9681 101.781 15.502C102.107 16.0358 102.27 16.6641 102.27 17.3867C102.27 18.5391 101.82 19.4635 100.922 20.1602C100.023 20.8503 98.8223 21.1953 97.3184 21.1953C96.3418 21.1953 95.4303 21.0098 94.584 20.6387C93.7376 20.2611 93.0833 19.7467 92.6211 19.0957C92.1654 18.4447 91.9375 17.7057 91.9375 16.8789H93.8223C93.8223 17.7383 94.138 18.4186 94.7695 18.9199C95.4076 19.4147 96.2572 19.6621 97.3184 19.6621C98.3079 19.6621 99.0664 19.4603 99.5938 19.0566C100.121 18.653 100.385 18.1029 100.385 17.4062C100.385 16.7096 100.141 16.1725 99.6523 15.7949C99.1641 15.4108 98.2786 15.0332 96.9961 14.6621ZM112.533 17.2891H106.576L105.238 21H103.305L108.734 6.78125H110.375L115.814 21H113.891L112.533 17.2891ZM107.143 15.7461H111.977L109.555 9.0957L107.143 15.7461ZM126.283 8.32422H121.713V21H119.848V8.32422H115.287V6.78125H126.283V8.32422ZM138.402 6.78125V16.4492C138.396 17.7904 137.973 18.8874 137.133 19.7402C136.299 20.5931 135.167 21.0716 133.734 21.1758L133.236 21.1953C131.68 21.1953 130.44 20.7754 129.516 19.9355C128.591 19.0957 128.122 17.9401 128.109 16.4688V6.78125H129.965V16.4102C129.965 17.4388 130.248 18.2396 130.814 18.8125C131.381 19.3789 132.188 19.6621 133.236 19.6621C134.298 19.6621 135.108 19.3789 135.668 18.8125C136.234 18.2461 136.518 17.4486 136.518 16.4199V6.78125H138.402ZM146.322 21V6.78125H150.336C151.573 6.78125 152.667 7.05469 153.617 7.60156C154.568 8.14844 155.3 8.92643 155.814 9.93555C156.335 10.9447 156.599 12.1035 156.605 13.4121V14.3203C156.605 15.6615 156.345 16.8366 155.824 17.8457C155.31 18.8548 154.571 19.6296 153.607 20.1699C152.65 20.7103 151.534 20.987 150.258 21H146.322ZM148.197 8.32422V19.4668H150.17C151.615 19.4668 152.738 19.0176 153.539 18.1191C154.346 17.2207 154.75 15.9414 154.75 14.2812V13.4512C154.75 11.8366 154.369 10.5833 153.607 9.69141C152.852 8.79297 151.778 8.33724 150.385 8.32422H148.197ZM167.084 17.2891H161.127L159.789 21H157.855L163.285 6.78125H164.926L170.365 21H168.441L167.084 17.2891ZM161.693 15.7461H166.527L164.105 9.0957L161.693 15.7461ZM180.834 8.32422H176.264V21H174.398V8.32422H169.838V6.78125H180.834V8.32422ZM190.014 17.2891H184.057L182.719 21H180.785L186.215 6.78125H187.855L193.295 21H191.371L190.014 17.2891ZM184.623 15.7461H189.457L187.035 9.0957L184.623 15.7461Z" fill="white"/>
<line x1="0.994737" y1="2.00001" x2="190.995" y2="1.00001" stroke="white" stroke-width="2"/>
</svg>
